{
  "globalDependencies": {
    "axios": "registry:dt/axios#0.9.1+20161016142654",
    "moment": "registry:dt/moment#2.11.1+20161010105546",
    "react-router-dom": "registry:dt/react-router-dom#4.0.0+20170323201651"
  }
}
